Tidy Data
…
head(grades)

## # A tibble: 6 x 4
##   students        TA      test  grade
##   <chr>           <chr>   <chr> <dbl>
## 1 Guy May         Raphael exam1  57.2
## 2 Guy May         Raphael exam2  56.8
## 3 Guy May         Raphael exam3  74.9
## 4 Genevieve Clark Raphael exam1  56.5
## 5 Genevieve Clark Raphael exam2  64.1
## 6 Genevieve Clark Raphael exam3  61.4

grades %>% pivot_wider(names_from=test, values_from=grade)

## # A tibble: 50 x 5
##    students          TA            exam1 exam2 exam3
##    <chr>             <chr>         <dbl> <dbl> <dbl>
##  1 Guy May           Raphael        57.2  56.8  74.9
##  2 Genevieve Clark   Raphael        56.5  64.1  61.4
##  3 Jody Phillips     Donatello      71.5  72.0  71.1
##  4 Claire Fitzgerald Michaelangelo  80.9  71.3  68.1
##  5 Everett Graves    Raphael        62.6  45.3  55.2
##  6 Lance Logan       Leonardo       70.2  64.0  64.8
##  7 Anne Craig        Michaelangelo  74.4  79.1  72.6
##  8 Ted Hunt          Leonardo       73.0  79.8  87.5
##  9 Angelina Wright   Michaelangelo  70.1  69.7  62.6
## 10 Janet Padilla     Michaelangelo  71.1  69.1  80.1
## #  with 40 more rows
…
